v1,300,7
v2,300,7
v3,300,8
v4,300,8
v5,300,8
v6,300,8
v7,300,8
v8,300,8
a1,150,1
a2,150,1
a3,150,0
a4,150,0
a5,150,1
a6,150,1
a7,150,1
a8,150,1
b1,150,1
b2,150,1
b3,150,1
b4,150,1
b5,150,1
b6,150,1
b7,150,1
b8,150,1
c1,150,1
c2,150,1
c3,150,1
c4,150,1
c5,150,1
c6,150,1
c7,150,1
c8,150,1
d1,150,1
d2,150,1
d3,150,0
d4,150,0
d5,150,1
d6,150,1
d7,150,1
d8,150,1
